<svg width="180" height="180" viewBox="0 0 180 180" fill="none" xmlns="http://www.w3.org/2000/svg">
<path d="M137.224 173.9H42.3445C37.1656 173.895 32.2005 171.835 28.5384 168.173C24.8764 164.511 22.8165 159.545 22.8105 154.367V26.0004C22.8165 20.8215 24.8764 15.8564 28.5384 12.1943C32.2005 8.53228 37.1656 6.47234 42.3445 6.46643H137.224C142.403 6.47234 147.368 8.53228 151.03 12.1943C154.692 15.8564 156.752 20.8215 156.758 26.0004V154.367C156.752 159.545 154.692 164.511 151.03 168.173C147.368 171.835 142.403 173.895 137.224 173.9ZM42.3445 12.0476C38.6454 12.052 35.099 13.5234 32.4833 16.1392C29.8676 18.7549 28.3961 22.3012 28.3917 26.0004V154.367C28.3961 158.066 29.8676 161.612 32.4833 164.228C35.099 166.843 38.6454 168.315 42.3445 168.319H137.224C140.923 168.315 144.469 166.843 147.085 164.228C149.701 161.612 151.172 158.066 151.177 154.367V26.0004C151.172 22.3012 149.701 18.7549 147.085 16.1392C144.469 13.5234 140.923 12.052 137.224 12.0476H42.3445Z" fill="black"/>
<path d="M98.1561 162.738H81.4127C79.1924 162.738 77.063 161.856 75.493 160.286C73.923 158.716 73.041 156.587 73.041 154.366V143.204C73.041 140.984 73.923 138.855 75.493 137.285C77.063 135.715 79.1924 134.833 81.4127 134.833H98.1561C100.376 134.833 102.506 135.715 104.076 137.285C105.646 138.855 106.528 140.984 106.528 143.204V154.366C106.528 156.587 105.646 158.716 104.076 160.286C102.506 161.856 100.376 162.738 98.1561 162.738ZM81.4127 140.414C80.6726 140.414 79.9628 140.708 79.4395 141.231C78.9162 141.754 78.6222 142.464 78.6222 143.204V154.366C78.6222 155.107 78.9162 155.816 79.4395 156.34C79.9628 156.863 80.6726 157.157 81.4127 157.157H98.1561C98.8962 157.157 99.606 156.863 100.129 156.34C100.653 155.816 100.947 155.107 100.947 154.366V143.204C100.947 142.464 100.653 141.754 100.129 141.231C99.606 140.708 98.8962 140.414 98.1561 140.414H81.4127Z" fill="black"/>
<path d="M59.0878 162.738H42.3444C40.124 162.738 37.9947 161.856 36.4247 160.286C34.8547 158.716 33.9727 156.587 33.9727 154.366V143.204C33.9727 140.984 34.8547 138.855 36.4247 137.285C37.9947 135.715 40.124 134.833 42.3444 134.833H59.0878C61.3081 134.833 63.4375 135.715 65.0075 137.285C66.5775 138.855 67.4595 140.984 67.4595 143.204V154.366C67.4595 156.587 66.5775 158.716 65.0075 160.286C63.4375 161.856 61.3081 162.738 59.0878 162.738ZM42.3444 140.414C41.6043 140.414 40.8945 140.708 40.3711 141.231C39.8478 141.754 39.5538 142.464 39.5538 143.204V154.366C39.5538 155.107 39.8478 155.816 40.3711 156.34C40.8945 156.863 41.6043 157.157 42.3444 157.157H59.0878C59.8279 157.157 60.5377 156.863 61.061 156.34C61.5843 155.816 61.8783 155.107 61.8783 154.366V143.204C61.8783 142.464 61.5843 141.754 61.061 141.231C60.5377 140.708 59.8279 140.414 59.0878 140.414H42.3444Z" fill="black"/>
<path d="M137.224 162.738H120.48C118.26 162.738 116.13 161.856 114.56 160.286C112.99 158.716 112.108 156.587 112.108 154.366V109.717C112.108 107.497 112.99 105.368 114.56 103.798C116.13 102.228 118.26 101.346 120.48 101.346H137.224C139.444 101.346 141.573 102.228 143.143 103.798C144.713 105.368 145.595 107.497 145.595 109.717V154.366C145.595 156.587 144.713 158.716 143.143 160.286C141.573 161.856 139.444 162.738 137.224 162.738ZM120.48 106.927C119.74 106.927 119.03 107.221 118.507 107.744C117.984 108.268 117.69 108.977 117.69 109.717V154.366C117.69 155.107 117.984 155.816 118.507 156.34C119.03 156.863 119.74 157.157 120.48 157.157H137.224C137.964 157.157 138.673 156.863 139.197 156.34C139.72 155.816 140.014 155.107 140.014 154.366V109.717C140.014 108.977 139.72 108.268 139.197 107.744C138.673 107.221 137.964 106.927 137.224 106.927H120.48Z" fill="black"/>
<path d="M98.1561 129.251H81.4127C79.1924 129.251 77.063 128.369 75.493 126.799C73.923 125.229 73.041 123.1 73.041 120.88V109.717C73.041 107.497 73.923 105.368 75.493 103.798C77.063 102.228 79.1924 101.346 81.4127 101.346H98.1561C100.376 101.346 102.506 102.228 104.076 103.798C105.646 105.368 106.528 107.497 106.528 109.717V120.88C106.528 123.1 105.646 125.229 104.076 126.799C102.506 128.369 100.376 129.251 98.1561 129.251ZM81.4127 106.927C80.6726 106.927 79.9628 107.221 79.4395 107.744C78.9162 108.268 78.6222 108.977 78.6222 109.717V120.88C78.6222 121.62 78.9162 122.33 79.4395 122.853C79.9628 123.376 80.6726 123.67 81.4127 123.67H98.1561C98.8962 123.67 99.606 123.376 100.129 122.853C100.653 122.33 100.947 121.62 100.947 120.88V109.717C100.947 108.977 100.653 108.268 100.129 107.744C99.606 107.221 98.8962 106.927 98.1561 106.927H81.4127Z" fill="black"/>
<path d="M59.0878 129.251H42.3444C40.124 129.251 37.9947 128.369 36.4247 126.799C34.8547 125.229 33.9727 123.1 33.9727 120.88V109.717C33.9727 107.497 34.8547 105.368 36.4247 103.798C37.9947 102.228 40.124 101.346 42.3444 101.346H59.0878C61.3081 101.346 63.4375 102.228 65.0075 103.798C66.5775 105.368 67.4595 107.497 67.4595 109.717V120.88C67.4595 123.1 66.5775 125.229 65.0075 126.799C63.4375 128.369 61.3081 129.251 59.0878 129.251ZM42.3444 106.927C41.6043 106.927 40.8945 107.221 40.3711 107.744C39.8478 108.268 39.5538 108.977 39.5538 109.717V120.88C39.5538 121.62 39.8478 122.33 40.3711 122.853C40.8945 123.376 41.6043 123.67 42.3444 123.67H59.0878C59.8279 123.67 60.5377 123.376 61.061 122.853C61.5843 122.33 61.8783 121.62 61.8783 120.88V109.717C61.8783 108.977 61.5843 108.268 61.061 107.744C60.5377 107.221 59.8279 106.927 59.0878 106.927H42.3444Z" fill="black"/>
<path d="M98.1561 95.7646H81.4127C79.1924 95.7646 77.063 94.8826 75.493 93.3126C73.923 91.7426 73.041 89.6132 73.041 87.3929V76.2307C73.041 74.0103 73.923 71.881 75.493 70.311C77.063 68.741 79.1924 67.8589 81.4127 67.8589H98.1561C100.376 67.8589 102.506 68.741 104.076 70.311C105.646 71.881 106.528 74.0103 106.528 76.2307V87.3929C106.528 89.6132 105.646 91.7426 104.076 93.3126C102.506 94.8826 100.376 95.7646 98.1561 95.7646ZM81.4127 73.4401C80.6726 73.4401 79.9628 73.7341 79.4395 74.2574C78.9162 74.7808 78.6222 75.4905 78.6222 76.2307V87.3929C78.6222 88.133 78.9162 88.8428 79.4395 89.3662C79.9628 89.8895 80.6726 90.1835 81.4127 90.1835H98.1561C98.8962 90.1835 99.606 89.8895 100.129 89.3662C100.653 88.8428 100.947 88.133 100.947 87.3929V76.2307C100.947 75.4905 100.653 74.7808 100.129 74.2574C99.606 73.7341 98.8962 73.4401 98.1561 73.4401H81.4127Z" fill="black"/>
<path d="M59.0878 95.7646H42.3444C40.124 95.7646 37.9947 94.8826 36.4247 93.3126C34.8547 91.7426 33.9727 89.6132 33.9727 87.3929V76.2307C33.9727 74.0103 34.8547 71.881 36.4247 70.311C37.9947 68.741 40.124 67.8589 42.3444 67.8589H59.0878C61.3081 67.8589 63.4375 68.741 65.0075 70.311C66.5775 71.881 67.4595 74.0103 67.4595 76.2307V87.3929C67.4595 89.6132 66.5775 91.7426 65.0075 93.3126C63.4375 94.8826 61.3081 95.7646 59.0878 95.7646ZM42.3444 73.4401C41.6043 73.4401 40.8945 73.7341 40.3711 74.2574C39.8478 74.7808 39.5538 75.4905 39.5538 76.2307V87.3929C39.5538 88.133 39.8478 88.8428 40.3711 89.3662C40.8945 89.8895 41.6043 90.1835 42.3444 90.1835H59.0878C59.8279 90.1835 60.5377 89.8895 61.061 89.3662C61.5843 88.8428 61.8783 88.133 61.8783 87.3929V76.2307C61.8783 75.4905 61.5843 74.7808 61.061 74.2574C60.5377 73.7341 59.8279 73.4401 59.0878 73.4401H42.3444Z" fill="black"/>
<path d="M137.224 95.7646H120.48C118.26 95.7646 116.13 94.8826 114.56 93.3126C112.99 91.7426 112.108 89.6132 112.108 87.3929V76.2307C112.108 74.0103 112.99 71.881 114.56 70.311C116.13 68.741 118.26 67.8589 120.48 67.8589H137.224C139.444 67.8589 141.573 68.741 143.143 70.311C144.713 71.881 145.595 74.0103 145.595 76.2307V87.3929C145.595 89.6132 144.713 91.7426 143.143 93.3126C141.573 94.8826 139.444 95.7646 137.224 95.7646ZM120.48 73.4401C119.74 73.4401 119.03 73.7341 118.507 74.2574C117.984 74.7808 117.69 75.4905 117.69 76.2307V87.3929C117.69 88.133 117.984 88.8428 118.507 89.3662C119.03 89.8895 119.74 90.1835 120.48 90.1835H137.224C137.964 90.1835 138.673 89.8895 139.197 89.3662C139.72 88.8428 140.014 88.133 140.014 87.3929V76.2307C140.014 75.4905 139.72 74.7808 139.197 74.2574C138.673 73.7341 137.964 73.4401 137.224 73.4401H120.48Z" fill="black"/>
<path d="M137.224 56.6967H42.3444C40.124 56.6967 37.9947 55.8147 36.4247 54.2447C34.8547 52.6747 33.9727 50.5453 33.9727 48.325V26.0004C33.9727 23.7801 34.8547 21.6507 36.4247 20.0807C37.9947 18.5107 40.124 17.6287 42.3444 17.6287H137.224C139.444 17.6287 141.573 18.5107 143.143 20.0807C144.713 21.6507 145.595 23.7801 145.595 26.0004V48.325C145.595 50.5453 144.713 52.6747 143.143 54.2447C141.573 55.8147 139.444 56.6967 137.224 56.6967ZM42.3444 23.2099C41.6043 23.2099 40.8945 23.5039 40.3711 24.0272C39.8478 24.5505 39.5538 25.2603 39.5538 26.0004V48.325C39.5538 49.0651 39.8478 49.7749 40.3711 50.2982C40.8945 50.8215 41.6043 51.1155 42.3444 51.1155H137.224C137.964 51.1155 138.674 50.8215 139.197 50.2982C139.72 49.7749 140.014 49.0651 140.014 48.325V26.0004C140.014 25.2603 139.72 24.5505 139.197 24.0272C138.674 23.5039 137.964 23.2099 137.224 23.2099H42.3444Z" fill="black"/>
<path d="M128.852 48.325C126.632 48.325 124.502 47.443 122.932 45.873C121.362 44.303 120.48 42.1736 120.48 39.9533V34.3721C120.48 32.1518 121.362 30.0224 122.932 28.4524C124.502 26.8824 126.632 26.0004 128.852 26.0004C131.072 26.0004 133.202 26.8824 134.772 28.4524C136.342 30.0224 137.224 32.1518 137.224 34.3721V39.9533C137.224 42.1736 136.342 44.303 134.772 45.873C133.202 47.443 131.072 48.325 128.852 48.325ZM128.852 31.5816C128.112 31.5816 127.402 31.8756 126.879 32.3989C126.356 32.9222 126.062 33.632 126.062 34.3721V39.9533C126.062 40.6934 126.356 41.4032 126.879 41.9265C127.402 42.4498 128.112 42.7438 128.852 42.7438C129.592 42.7438 130.302 42.4498 130.825 41.9265C131.349 41.4032 131.643 40.6934 131.643 39.9533V34.3721C131.643 33.632 131.349 32.9222 130.825 32.3989C130.302 31.8756 129.592 31.5816 128.852 31.5816Z" fill="black"/>
</svg>
